package loylogic.eth.category.visibility;

function Boolean checkIfNoADGOVClub(DisplayPropBean dispBean, String clubIds){
	List<String> channelIds= Arrays.asList(clubIds.split(","));
	Boolean isNotADGOV = true;
	if(dispBean != null){
		List<String> applicationInput = dispBean.getClubMembershipProfilesClubIDList();
			for(String chnIds : channelIds){
                         
				if(chnIds != null && applicationInput != null && applicationInput.contains(chnIds)) {
					isNotADGOV = false;
					break;
				}	
			}
	}

	return isNotADGOV;
}

function Boolean checkIfNoTier(DisplayPropBean dispBean, String tiers){
	List<String> tierList= Arrays.asList(tiers.split(","));
	Boolean isNotMatchedTier = true;
       
	if(dispBean != null){
		String applicationInput = dispBean.getTierName();
			for(String tier: tierList){
				if(tier!= null && applicationInput != null && applicationInput.equalsIgnoreCase(tier) ) {
					isNotMatchedTier = false;
					break;
				}	
			}
	}

	return isNotMatchedTier;
}

function Boolean checkIfNotABirthDayWeek(DisplayPropBean bean) {

	Boolean isBirthdayWeek = false;
	if(bean != null) {
			
		Date dob = bean.getBirthDate();     
		try {
			if(dob.equals(null)){
				isBirthdayWeek = true;	
			}else{
				Date dateToday = new Date();

				SimpleDateFormat staDate = new SimpleDateFormat("ddMM");
				SimpleDateFormat curDate = new SimpleDateFormat("ddMM");

				Calendar offerStartTime = Calendar.getInstance();
				Calendar currentTime = Calendar.getInstance();

				offerStartTime.setTime(dob);
				currentTime.setTime(dateToday);

				String ofrStDat = staDate.format(offerStartTime.getTime());
				String prstDat = curDate.format(currentTime.getTime());
		
				offerStartTime.setTime(staDate.parse(ofrStDat));
				currentTime.setTime(curDate.parse(prstDat));
			
				long startTimeMilis = offerStartTime.getTimeInMillis();
				long presentMilis = currentTime.getTimeInMillis();
				long dayDiff = (presentMilis - startTimeMilis) / (1000 * 60 * 60 * 24);

				if (dayDiff >=0  && dayDiff < 7) {
					isBirthdayWeek = true;
				} else {
					isBirthdayWeek = false;
				}
			}
		} catch (ParseException e) {
			e.printStackTrace();
		} catch (Exception ex) {
			System.out.println("IN EXception:"+ ex.getMessage());
		}
	}	
	return !isBirthdayWeek;
}

