package loylogic.eth.program.mileage;


rule "Auction Correction Factor from 19 March 2017"
	dialect "mvel"
	no-loop true
	agenda-group "BasePricing"
	when
		$bean : MileageAlgoBean(programCode == "ETH",redemptionType in ("A"), (dateToday >= "19-Mar-2017"),
		productCode not in ("PRDXXX"))
	then
		$bean.setMilesRoundingType("UP");
		$bean.setAlgorithmCode("LL_BS_BCP100");
		$bean.setBrokrageCommissionProducts(0);
		$bean.setLoymartSalesPriceContributionShare(60.0);
		 $bean.setBrokrageCommissionProducts(100);
		$bean.setMilesConversionRatio(0.0025);
		$bean.setMilesRoundingUnit(100);
		$bean.setFloorPrice(0);
		$bean.setCommentsForAudit("EY upgrade & ADIB products rule");
		update($bean);
end


rule "Auction Correction Factor from April 2016"
    no-loop true
    agenda-group "BasePricing"
    dialect "mvel"
    when
        $bean : MileageAlgoBean(programCode == "ETH",redemptionType in ("A"), (dateToday < "19-Mar-2017"),
        productCode not in ("PRDXXX"))
    then
        $bean.setAlgorithmCode("LL_BS_BCP100");
        $bean.setMilesConversionRatio(0.0025);
        $bean.setMilesRoundingType("UP");
        $bean.setMilesRoundingUnit(100);
        $bean.setFloorPrice(0.0);
        $bean.setCommentsForAudit("Default CPPM rule for ETH Auction");
        $bean.setBrokrageCommissionProducts(100);
        $bean.setLoymartSalesPriceContributionShare(60.0);
        $bean.setCorrectionFactor(0.0);
        update($bean);
end


rule "Default CPPM rule for ETH from 19 March 2017"
    no-loop true
    dialect "mvel"
    when
        $bean : MileageAlgoBean(programCode == "ETH",redemptionType in ("B","G","R","P"),  redemptionSubType not in ("MR", "GC", "EX", "EV"),
        (dateToday >= "19-Mar-2017"), productCode not in ("PRD23595","PRD5","PRD24042","PRD24046","PRD24047","PRD24048","PRD24049","PRD24050","PRD23085", "PRD17540","PRD29812","PRD29864","PRD33503","PRD25723"))
    then
        $bean.setMilesRoundingType("UP");
        $bean.setAlgorithmCode("LL_BS_BCP100");
        $bean.setBrokrageCommissionProducts(100);
        $bean.setLoymartSalesPriceContributionShare(60);
        $bean.setMilesConversionRatio(0.0055);
        $bean.setMilesConversionRatioStrikeThrough(0.0025);
        $bean.setMilesRoundingUnit(100);
        $bean.setFloorPrice(0);
        $bean.setCommentsForAudit("Default CPPM rule for ETH -- UAT");
        update($bean);
end

rule "Strike thru CPPM rule for ETH from 18 Aug 2017"
    no-loop true
    dialect "mvel"
    when
        $bean : MileageAlgoBean(programCode == "ETH",redemptionType in ("B"),  redemptionSubType in ("MR", "GC", "EX", "EV"),
        (dateToday >= "18-Aug-2017"), productCode not in ("PRD23595","PRD5","PRD24042","PRD24046","PRD24047","PRD24048","PRD24049","PRD24050","PRD23085", "PRD17540","PRD29812","PRD29864","PRD33503","PRD25723"))
    then
        $bean.setMilesRoundingType("UP");
        $bean.setAlgorithmCode("LL_BS_BCP100");
        $bean.setBrokrageCommissionProducts(100);
        $bean.setLoymartSalesPriceContributionShare(60);
        $bean.setMilesConversionRatio(0.0055);
        $bean.setMilesConversionRatioStrikeThrough(0.0025);
        $bean.setMilesRoundingUnit(100);
        $bean.setFloorPrice(0);
        $bean.setCommentsForAudit("Default CPPM rule for ETH - STKT");
        update($bean);
end

rule "Default CPPM rule for ETH from April 2016"
    no-loop true
    dialect "mvel"
    when
        $bean : MileageAlgoBean(programCode == "ETH",redemptionType in ("B","G","R","P"), (dateToday < "19-Mar-2017"),
        productCode not in ("PRD23595","PRD5","PRD24042","PRD24046","PRD24047","PRD24048","PRD24049","PRD24050","PRD23085", "PRD17540","PRD29812","PRD29864","PRD33503","PRD25723"))
    then
        $bean.setMilesRoundingType("UP");
        $bean.setAlgorithmCode("LL_BS_BCP100");
        $bean.setBrokrageCommissionProducts(100);
        $bean.setLoymartSalesPriceContributionShare(60);
        $bean.setMilesConversionRatio(0.0055);
        $bean.setMilesRoundingUnit(100);
        $bean.setFloorPrice(0);
        $bean.setCommentsForAudit("Default CPPM rule for ETH");
        update($bean);
end

