package loylogic.ndgesrex.category.visibility;

import com.loylogic.loyrewards.framework.rulesengine.beans.visibility.DisplayPropBean;
import java.text.ParseException;
import java.text.SimpleDateFormat;
import java.util.*;