package loylogic.eth.member.segmentation;


function String setContentTagData(Boolean isBlackListed, String contentTag) {

	if(isBlackListed!=null && isBlackListed.booleanValue()){
		contentTag = "You are not eligible to use miles for Rewards Shop at this time. You may be eligible for other options such as newspapers, magazines, dining, and air awards. Please visit our <a href='http://www.etihadguest.com/' target=_blank>Use Miles</a> web page for more information ";
	}
return contentTag;
}

