package loylogic.jprex.category.visibility;

import com.loylogic.loyrewards.framework.rulesengine.beans.visibility.DisplayPropBean;
import com.loylogic.loyrewards.framework.rulesengine.beans.membership.ProgramMemberBean;