package loylogic.scmrrex.product.visibility;

function Boolean checkCardBasedProductVisibility(DisplayPropBean bean) {


		Map map = new HashMap<String,List<String>>();
		map.put("AXCPE", Arrays.asList("PRD33517","PRD33518","PRD33379"));
		map.put("ABBGR", Arrays.asList("PRD33533","PRD33534","PRD33379"));
		map.put("AGCGL", Arrays.asList("PRD33519","PRD33520"));
		map.put("APCPL", Arrays.asList("PRD33521"));
		map.put("ANCEN", Arrays.asList("PRD33522"));
		map.put("ABBGL", Arrays.asList("PRD33523","PRD33524"));
		map.put("ABBGC", Arrays.asList("PRD33532","PRD33379"));
		map.put("ABCDB", Arrays.asList("PRD33525"));
		map.put("ABCBB", Arrays.asList("PRD33526"));
		map.put("ABCHB", Arrays.asList("PRD33527"));
		map.put("ABCFB", Arrays.asList("PRD33528"));
		map.put("ABCJB", Arrays.asList("PRD33529"));
		map.put("ABCIB", Arrays.asList("PRD33530"));
		map.put("ABBGP", Arrays.asList("PRD33531","PRD33379"));
		map.put("SCCM", Arrays.asList("PRD33533","PRD33534","PRD33531","PRD33523","PRD33524","PRD33526","PRD33525","PRD33530","PRD33529","PRD33527","PRD33528","PRD33532"));
		
	    Iterator entries = map.entrySet().iterator();
			
		if(entries!=null){
			while(entries.hasNext()){
				Map.Entry entry = (Map.Entry) entries.next();
				List productList = ((List)entry.getValue()); 
				if((bean.getSegmentCode().equals(entry.getKey()) || bean.getSegmentCode().equals("VISITOR") || bean.getSegmentCode().equals("VST")) && productList.contains(bean.getProductCode())){
					
					return false;
				}
			}	
		}
		return true;
}

function Boolean checkIfNotABirthDayWeek(DisplayPropBean bean) {

	Boolean isBirthdayWeek = false;
	if(bean != null) {
			
		Date dob = bean.getBirthDate();     
		try {
			if(dob.equals(null)){
				isBirthdayWeek = true;	
			}else{
				Date dateToday = new Date();

				SimpleDateFormat staDate = new SimpleDateFormat("ddMM");
				SimpleDateFormat curDate = new SimpleDateFormat("ddMM");

				Calendar offerStartTime = Calendar.getInstance();
				Calendar currentTime = Calendar.getInstance();

				offerStartTime.setTime(dob);
				currentTime.setTime(dateToday);

				String ofrStDat = staDate.format(offerStartTime.getTime());
				String prstDat = curDate.format(currentTime.getTime());
		
				offerStartTime.setTime(staDate.parse(ofrStDat));
				currentTime.setTime(curDate.parse(prstDat));
			
				long startTimeMilis = offerStartTime.getTimeInMillis();
				long presentMilis = currentTime.getTimeInMillis();
				long dayDiff = (presentMilis - startTimeMilis) / (1000 * 60 * 60 * 24);

				if (dayDiff >=0  && dayDiff < 7) {
					isBirthdayWeek = true;
				} else {
					isBirthdayWeek = false;
				}
			}
		} catch (ParseException e) {
			e.printStackTrace();
		} catch (Exception ex) {
			System.out.println("IN EXception:"+ ex.getMessage());
		}
	}	
	return !isBirthdayWeek;
}