package loylogic.ndgesrex.member.segmentation;


import com.loylogic.loyrewards.framework.rulesengine.beans.membership.ProgramMemberBean;

import java.util.*;

function boolean checkInstance(ProgramMemberBean bean, String instanceField, String instanceValue ){
    System.out.println("-----checkInstance fucntion called "+ "instanceField:" + instanceField + "instanceValue:" + instanceValue);
    Map<String,String> map = bean.getVariableParam();
    System.out.println("----checkInstance fucntion called "+ "map:" + map);
    if(map != null){
        String insVal = map.get(instanceField);
        System.out.println("------checkInstance fucntion called "+ "insVal:" + insVal);    
        if(null != insVal && insVal.equalsIgnoreCase(instanceValue)){
            return true;
        }else if(null == insVal && instanceValue.equalsIgnoreCase("DEM")){
            return true;
        }
    }else if(map == null && instanceValue.equalsIgnoreCase("DEM")){
        System.out.println("----checkInstance fucntion called return: true");
            return true;
    }
    
    return false;
}